The Enigmatic Coastal Taipan: Australia’s Deadly Serpent 🐍
…
6.1 Task 1 - Tourism data

load(file = "data/tourism.rda")

temp <- tourism %>% filter(str_detect(tourism$Region, "Townsville"))

unique(temp$Region)

[1] "South Townsville - Railway Estate" "Townsville - South"               
[3] "Townsville City - North Ward"      "Townsville Region nfd"            

temp %>% filter(Purpose == "Total") %>% 
  arrange(-Trips)

# A tsibble: 400 x 4 [1Q]
# Key:       Region, Purpose [4]
   Quarter Region                       Purpose Trips
     <qtr> <chr>                        <chr>   <dbl>
 1 2018 Q3 Townsville City - North Ward Total    318.
 2 2015 Q3 Townsville City - North Ward Total    303.
 3 2022 Q3 Townsville City - North Ward Total    298.
 4 2011 Q3 Townsville City - North Ward Total    272.
 5 2014 Q3 Townsville City - North Ward Total    266.
 6 2019 Q2 Townsville City - North Ward Total    265.
 7 2000 Q4 Townsville City - North Ward Total    258.
 8 2007 Q3 Townsville City - North Ward Total    251.
 9 2013 Q3 Townsville City - North Ward Total    246.
10 2016 Q3 Townsville City - North Ward Total    242.
# ℹ 390 more rows
…
